{
  "name": "Lenguaje y Comunicación II",
  "image": "portada.jpg",
  "temas": [
    {
      "tema": "Introducción",
      "subtemas": [     
        {
          "tema": "UAC III",
          "url": "index.html"
        },
        {
          "tema": "Multidisciplinariedad",
          "url": "multidisciplinariedad.html"
        },
        {
          "tema": "Evaluación diagnóstica",
          "url": "evaluacion_diagnostica.html"
        },
        {
          "tema": "Situación de aprendizaje",
          "url": "situacion_de_aprendizaje.html"
        },
        {
          "tema": "Situación en contexto",
          "url": "situacion_en_contexto.html"
        }
      ]
    },
    {
      "tema": "Cuento historias estructuradas",
      "subtemas": [
        {
          "tema": "B. Textos narrativos",
          "url": "tema1.0.0.html"
        },
        {
          "tema": "Actividad 1",
          "url": "tema1.0.0A1.html"
        },
        {
          "tema": "Actividad 2",
          "url": "tema1.0.0A2.html"
        },
        {
          "tema": "B.3 Mito y leyenda",
          "url": "tema1.1.0.html"
        },
        {
          "tema": "Actividad 3",
          "url": "tema1.1.0A3.html"
        },
        {
          "tema": "Actividad 4",
          "url": "tema1.1.0A4.html"
        },
        {
          "tema": "Actividad 5",
          "url": "tema1.1.0A5.html"
        },
        {
          "tema": "Actividad 6",
          "url": "tema1.1.0A6.html"
        },
        {
          "tema": "Actividad 7",
          "url": "tema1.1.0A7.html"
        },
        {
          "tema": "Actividad 8",
          "url": "tema1.1.0A8.html"
        },
        {
          "tema": "Actividad DHS",
          "url": "tema1.1.0A8_dhs.html"
        },
        {
          "tema": "C. Textos periodísticos",
          "url": "tema1.2.0.html"
        },
        {
          "tema": "Actividad 9",
          "url": "tema1.2.0A9.html"
        },
        {
          "tema": "Actividad 10",
          "url": "tema1.2.0A10.html"
        },
        {
          "tema": "C.2 Noticia",
          "url": "tema1.3.0.html"
        },
        {
          "tema": "Actividad 11",
          "url": "tema1.3.0A11.html"
        },
        {
          "tema": "Actividad 12",
          "url": "tema1.3.0A12.html"
        },
        {
          "tema": "Actividad 13",
          "url": "tema1.3.0A13.html"
        },
        {
          "tema": "Actividad 14",
          "url": "tema1.3.0A14.html"
        },
        {
          "tema": "Actividad 15",
          "url": "tema1.3.0A15.html"
        },
        {
          "tema": "C.3 Crónica",
          "url": "tema1.4.0.html"
        },
        {
          "tema": "Actividad 16",
          "url": "tema1.4.0A16.html"
        },
        {
          "tema": "Actividad multidisciplinar",
          "url": "tema1.4.0A16_actividad_multidisciplinar.html"
        },
        {
          "tema": "Actividad 17",
          "url": "tema1.4.0A17.html"
        },
        {
          "tema": "C.4 Reportaje",
          "url": "tema1.5.0.html"
        },
        {
          "tema": "Actividad 18",
          "url": "tema1.5.0A18.html"
        },
        {
          "tema": "Actividad 19",
          "url": "tema1.5.0A19.html"
        },
        {
          "tema": "Actividad 20",
          "url": "tema1.5.0A20.html"
        },
        {
          "tema": "Actividad 21",
          "url": "tema1.5.0A21.html"
        }
      ]
    },
    {
      "tema": "Escribo mis vivencias",
      "subtemas": [
        {
          "tema": "A. Diario",
          "url": "tema2.0.0.html"
        },
        {
          "tema": "Actividad 22",
          "url": "tema2.0.0A22.html"
        },
        {
          "tema": "Actividad 23",
          "url": "tema2.0.0A23.html"
        },
        {
          "tema": "Actividad 24",
          "url": "tema2.0.0A24.html"
        },
        {
          "tema": "Fomento a la lectura",
          "url": "tema2.0.0A24_lectura.html"
        },
        {
          "tema": "Actividad DHS",
          "url": "tema2.0.1_dhs.html"
        },
        {
          "tema": "Evaluación de situación de aprendizaje",
          "url": "tema2.0.1_situacion_de_aprendizaje.html"
        },
        {
          "tema": "Oriéntate",
          "url": "tema2.0.2_orientate.html"
        },
        {
          "tema": "Evaluación objetiva",
          "url": "tema2.0.3_evaluacion_objetiva.html"
        },
        {
          "tema": "Metacognición",
          "url": "tema2.0.3_metacognicion.html"
        },
        {
          "tema": "Evaluación de saberes",
          "url": "tema2.0.4_evaluacion_de_saberes.html"
        },
        {
          "tema": "Prueba tipo PLANEA",
          "url": "tema2.0.4_prueba_planea.html"
        },
        {
          "tema": "Bibliografía",
          "url": "bibliografia.html"
        }
      ]
    }
  ]
}